simulation/qsim/COE328Lab6.msim.vcd
$comment
	File created using the following command:
		vcd file COE328Lab6.msim.vcd -direction
$end
$date
	Sat Dec 02 16:10:58 2023
$end
$version
	ModelSim Version 10.1d
$end
$timescale
	1ps
$end
$scope module lab6_vlg_vec_tst $end
$var reg 8 ! A [7:0] $end
$var reg 8 " B [7:0] $end
$var reg 1 # Clock $end
$var reg 1 $ data_in $end
$var reg 1 % Enable_Decoder $end
$var reg 1 & FSM_reset $end
$var reg 1 ' Reset_A $end
$var reg 1 ( Reset_B $end
$var wire 1 ) currentState [0] $end
$var wire 1 * currentState [1] $end
$var wire 1 + currentState [2] $end
$var wire 1 , currentState [3] $end
$var wire 1 - OPERATOR [0] $end
$var wire 1 . OPERATOR [1] $end
$var wire 1 / OPERATOR [2] $end
$var wire 1 0 OPERATOR [3] $end
$var wire 1 1 OPERATOR [4] $end
$var wire 1 2 OPERATOR [5] $end
$var wire 1 3 OPERATOR [6] $end
$var wire 1 4 OPERATOR [7] $end
$var wire 1 5 OPERATOR [8] $end
$var wire 1 6 OPERATOR [9] $end
$var wire 1 7 OPERATOR [10] $end
$var wire 1 8 OPERATOR [11] $end
$var wire 1 9 OPERATOR [12] $end
$var wire 1 : OPERATOR [13] $end
$var wire 1 ; OPERATOR [14] $end
$var wire 1 < OPERATOR [15] $end
$var wire 1 = R1Binary [0] $end
$var wire 1 > R1Binary [1] $end
$var wire 1 ? R1Binary [2] $end
$var wire 1 @ R1Binary [3] $end
$var wire 1 A R2Binary [0] $end
$var wire 1 B R2Binary [1] $end
$var wire 1 C R2Binary [2] $end
$var wire 1 D R2Binary [3] $end
$var wire 1 E R_first_four [1] $end
$var wire 1 F R_first_four [2] $end
$var wire 1 G R_first_four [3] $end
$var wire 1 H R_first_four [4] $end
$var wire 1 I R_first_four [5] $end
$var wire 1 J R_first_four [6] $end
$var wire 1 K R_first_four [7] $end
$var wire 1 L R_last_four [1] $end
$var wire 1 M R_last_four [2] $end
$var wire 1 N R_last_four [3] $end
$var wire 1 O R_last_four [4] $end
$var wire 1 P R_last_four [5] $end
$var wire 1 Q R_last_four [6] $end
$var wire 1 R R_last_four [7] $end
$var wire 1 S Sign [1] $end
$var wire 1 T Sign [2] $end
$var wire 1 U Sign [3] $end
$var wire 1 V Sign [4] $end
$var wire 1 W Sign [5] $end
$var wire 1 X Sign [6] $end
$var wire 1 Y Sign [7] $end
$var wire 1 Z student_id [1] $end
$var wire 1 [ student_id [2] $end
$var wire 1 \ student_id [3] $end
$var wire 1 ] student_id [4] $end
$var wire 1 ^ student_id [5] $end
$var wire 1 _ student_id [6] $end
$var wire 1 ` student_id [7] $end
$var wire 1 a sampler $end
$scope module i1 $end
$var wire 1 b gnd $end
$var wire 1 c vcc $end
$var wire 1 d unknown $end
$var tri1 1 e devclrn $end
$var tri1 1 f devpor $end
$var tri1 1 g devoe $end
$var wire 1 h inst2|Add3~4_combout $end
$var wire 1 i inst2|Add0~6_combout $end
$var wire 1 j inst2|Add0~10_combout $end
$var wire 1 k inst2|Add0~12_combout $end
$var wire 1 l inst2|Selector5~0_combout $end
$var wire 1 m inst2|Selector5~1_combout $end
$var wire 1 n inst2|Selector5~2_combout $end
$var wire 1 o inst2|Selector5~5_combout $end
$var wire 1 p inst2|Selector1~0_combout $end
$var wire 1 q inst2|Selector1~1_combout $end
$var wire 1 r inst2|Selector3~0_combout $end
$var wire 1 s inst2|Selector3~1_combout $end
$var wire 1 t inst|Q[4]~feeder_combout $end
$var wire 1 u Clock~combout $end
$var wire 1 v Clock~clkctrl_outclk $end
$var wire 1 w inst3|yfsm.s7~feeder_combout $end
$var wire 1 x FSM_reset~combout $end
$var wire 1 y FSM_reset~clkctrl_outclk $end
$var wire 1 z data_in~combout $end
$var wire 1 { inst3|yfsm.s7~regout $end
$var wire 1 | inst3|yfsm.s6~feeder_combout $end
$var wire 1 } inst3|yfsm.s6~regout $end
$var wire 1 ~ inst3|yfsm.s5~regout $end
$var wire 1 !! inst3|yfsm.s4~regout $end
$var wire 1 "! inst3|yfsm.s3~regout $end
$var wire 1 #! inst3|yfsm.s2~regout $end
$var wire 1 $! inst3|yfsm.s1~regout $end
$var wire 1 %! inst3|yfsm.s0~0_combout $end
$var wire 1 &! inst3|yfsm.s0~regout $end
$var wire 1 '! inst3|yfsm.s8~0_combout $end
$var wire 1 (! inst3|yfsm.s8~regout $end
$var wire 1 )! inst3|WideOr10~0_combout $end
$var wire 1 *! inst3|WideOr11~0_combout $end
$var wire 1 +! inst3|WideOr12~0_combout $end
$var wire 1 ,! Enable_Decoder~combout $end
$var wire 1 -! inst12|Mux0~0_combout $end
$var wire 1 .! inst12|Mux1~0_combout $end
$var wire 1 /! inst12|Mux1~1_combout $end
$var wire 1 0! inst12|Mux2~0_combout $end
$var wire 1 1! inst12|Mux3~0_combout $end
$var wire 1 2! inst12|Mux4~0_combout $end
$var wire 1 3! inst12|Mux5~0_combout $end
$var wire 1 4! inst12|Mux6~0_combout $end
$var wire 1 5! inst12|Mux7~0_combout $end
$var wire 1 6! inst12|Mux8~0_combout $end
$var wire 1 7! inst2|Result[3]~3_combout $end
$var wire 1 8! inst|Q[3]~feeder_combout $end
$var wire 1 9! Reset_A~combout $end
$var wire 1 :! Reset_A~clkctrl_outclk $end
$var wire 1 ;! inst|Q[2]~feeder_combout $end
$var wire 1 <! inst|Q[1]~feeder_combout $end
$var wire 1 =! inst|Q[0]~feeder_combout $end
$var wire 1 >! inst2|Add3~1_cout $end
$var wire 1 ?! inst2|Add3~3 $end
$var wire 1 @! inst2|Add3~5 $end
$var wire 1 A! inst2|Add3~6_combout $end
$var wire 1 B! Reset_B~combout $end
$var wire 1 C! Reset_B~clkctrl_outclk $end
$var wire 1 D! inst2|Selector4~3_combout $end
$var wire 1 E! inst2|Result[3]~1_combout $end
$var wire 1 F! inst2|Result[3]~0_combout $end
$var wire 1 G! inst2|Result[3]~2_combout $end
$var wire 1 H! inst2|Selector4~4_combout $end
$var wire 1 I! inst1|Q[1]~feeder_combout $end
$var wire 1 J! inst1|Q[0]~feeder_combout $end
$var wire 1 K! inst2|Add2~1_cout $end
$var wire 1 L! inst2|Add2~3 $end
$var wire 1 M! inst2|Add2~5 $end
$var wire 1 N! inst2|Add2~6_combout $end
$var wire 1 O! inst1|Q[2]~feeder_combout $end
$var wire 1 P! inst2|Add0~1 $end
$var wire 1 Q! inst2|Add0~3 $end
$var wire 1 R! inst2|Add0~4_combout $end
$var wire 1 S! inst2|Add0~2_combout $end
$var wire 1 T! inst2|Add0~0_combout $end
$var wire 1 U! inst2|Add1~1 $end
$var wire 1 V! inst2|Add1~3 $end
$var wire 1 W! inst2|Add1~5 $end
$var wire 1 X! inst2|Add1~6_combout $end
$var wire 1 Y! inst2|Selector4~5_combout $end
$var wire 1 Z! inst2|Selector4~6_combout $end
$var wire 1 [! inst2|Selector4~7_combout $end
$var wire 1 \! inst2|Selector4~8_combout $end
$var wire 1 ]! inst2|Selector4~12_combout $end
$var wire 1 ^! inst1|Q[4]~feeder_combout $end
$var wire 1 _! inst12|Mux5~1_combout $end
$var wire 1 `! inst2|Add2~4_combout $end
$var wire 1 a! inst2|Add1~4_combout $end
$var wire 1 b! inst2|Selector5~3_combout $end
$var wire 1 c! inst2|Selector5~4_combout $end
$var wire 1 d! inst2|Selector4~9_combout $end
$var wire 1 e! inst2|Add2~2_combout $end
$var wire 1 f! inst2|Add1~2_combout $end
$var wire 1 g! inst2|Selector4~10_combout $end
$var wire 1 h! inst2|Add3~2_combout $end
$var wire 1 i! inst2|Selector6~0_combout $end
$var wire 1 j! inst2|Selector6~1_combout $end
$var wire 1 k! inst2|Selector6~2_combout $end
$var wire 1 l! inst2|Selector7~2_combout $end
$var wire 1 m! inst2|Selector7~3_combout $end
$var wire 1 n! inst2|Add1~0_combout $end
$var wire 1 o! inst2|Selector5~6_combout $end
$var wire 1 p! inst2|Selector7~0_combout $end
$var wire 1 q! inst2|Selector7~1_combout $end
$var wire 1 r! inst|Q[7]~feeder_combout $end
$var wire 1 s! inst2|Reg1[7]~feeder_combout $end
$var wire 1 t! inst|Q[6]~feeder_combout $end
$var wire 1 u! inst2|Add3~7 $end
$var wire 1 v! inst2|Add3~9 $end
$var wire 1 w! inst2|Add3~11 $end
$var wire 1 x! inst2|Add3~13 $end
$var wire 1 y! inst2|Add3~14_combout $end
$var wire 1 z! inst2|Reg2[7]~feeder_combout $end
$var wire 1 {! inst2|Selector4~11_combout $end
$var wire 1 |! inst1|Q[6]~feeder_combout $end
$var wire 1 }! inst2|Reg2[6]~feeder_combout $end
$var wire 1 ~! inst2|Add2~7 $end
$var wire 1 !" inst2|Add2~9 $end
$var wire 1 "" inst2|Add2~11 $end
$var wire 1 #" inst2|Add2~13 $end
$var wire 1 $" inst2|Add2~14_combout $end
$var wire 1 %" inst2|Selector0~0_combout $end
$var wire 1 &" inst|Q[5]~feeder_combout $end
$var wire 1 '" inst2|Add0~5 $end
$var wire 1 (" inst2|Add0~7 $end
$var wire 1 )" inst2|Add0~9 $end
$var wire 1 *" inst2|Add0~11 $end
$var wire 1 +" inst2|Add0~13 $end
$var wire 1 ," inst2|Add0~14_combout $end
$var wire 1 -" inst2|Add0~8_combout $end
$var wire 1 ." inst2|Add1~7 $end
$var wire 1 /" inst2|Add1~9 $end
$var wire 1 0" inst2|Add1~11 $end
$var wire 1 1" inst2|Add1~13 $end
$var wire 1 2" inst2|Add1~14_combout $end
$var wire 1 3" inst2|Selector0~1_combout $end
$var wire 1 4" inst2|Selector0~2_combout $end
$var wire 1 5" inst2|Selector0~3_combout $end
$var wire 1 6" inst2|Selector0~4_combout $end
$var wire 1 7" inst2|Selector0~5_combout $end
$var wire 1 8" inst2|Result[2]~4_combout $end
$var wire 1 9" inst2|Result[2]~5_combout $end
$var wire 1 :" inst2|Add3~12_combout $end
$var wire 1 ;" inst2|Selector1~2_combout $end
$var wire 1 <" inst2|Add2~12_combout $end
$var wire 1 =" inst2|Add1~12_combout $end
$var wire 1 >" inst2|Selector1~3_combout $end
$var wire 1 ?" inst2|Selector1~4_combout $end
$var wire 1 @" inst2|Add3~10_combout $end
$var wire 1 A" inst2|Selector4~2_combout $end
$var wire 1 B" inst2|Selector2~2_combout $end
$var wire 1 C" inst2|Add1~10_combout $end
$var wire 1 D" inst2|Add2~10_combout $end
$var wire 1 E" inst2|Selector2~3_combout $end
$var wire 1 F" inst2|Selector2~4_combout $end
$var wire 1 G" inst2|Selector2~5_combout $end
$var wire 1 H" inst2|Selector2~6_combout $end
$var wire 1 I" inst2|Selector2~7_combout $end
$var wire 1 J" inst2|Add3~8_combout $end
$var wire 1 K" inst2|Selector3~2_combout $end
$var wire 1 L" inst2|Add2~8_combout $end
$var wire 1 M" inst2|Add1~8_combout $end
$var wire 1 N" inst2|Selector3~3_combout $end
$var wire 1 O" inst2|Selector3~4_combout $end
$var wire 1 P" inst6|Mux0~0_combout $end
$var wire 1 Q" inst6|Mux1~0_combout $end
$var wire 1 R" inst6|Mux2~0_combout $end
$var wire 1 S" inst6|Mux3~0_combout $end
$var wire 1 T" inst6|Mux4~0_combout $end
$var wire 1 U" inst6|Mux5~0_combout $end
$var wire 1 V" inst6|Mux6~0_combout $end
$var wire 1 W" inst4|Mux0~0_combout $end
$var wire 1 X" inst4|Mux1~0_combout $end
$var wire 1 Y" inst4|Mux2~0_combout $end
$var wire 1 Z" inst4|Mux3~0_combout $end
$var wire 1 [" inst4|Mux4~0_combout $end
$var wire 1 \" inst4|Mux5~0_combout $end
$var wire 1 ]" inst4|Mux6~0_combout $end
$var wire 1 ^" inst3|WideOr9~0_combout $end
$var wire 1 _" inst5|Mux0~0_combout $end
$var wire 1 `" inst5|Mux1~8_combout $end
$var wire 1 a" inst5|Mux3~8_combout $end
$var wire 1 b" inst5|Mux5~0_combout $end
$var wire 1 c" inst5|Mux6~0_combout $end
$var wire 1 d" inst3|student_id [3] $end
$var wire 1 e" inst3|student_id [2] $end
$var wire 1 f" inst3|student_id [1] $end
$var wire 1 g" inst3|student_id [0] $end
$var wire 1 h" inst2|Result [7] $end
$var wire 1 i" inst2|Result [6] $end
$var wire 1 j" inst2|Result [5] $end
$var wire 1 k" inst2|Result [4] $end
$var wire 1 l" inst2|Result [3] $end
$var wire 1 m" inst2|Result [2] $end
$var wire 1 n" inst2|Result [1] $end
$var wire 1 o" inst2|Result [0] $end
$var wire 1 p" inst2|Reg2 [7] $end
$var wire 1 q" inst2|Reg2 [6] $end
$var wire 1 r" inst2|Reg2 [5] $end
$var wire 1 s" inst2|Reg2 [4] $end
$var wire 1 t" inst2|Reg2 [3] $end
$var wire 1 u" inst2|Reg2 [2] $end
$var wire 1 v" inst2|Reg2 [1] $end
$var wire 1 w" inst2|Reg2 [0] $end
$var wire 1 x" inst2|Reg1 [7] $end
$var wire 1 y" inst2|Reg1 [6] $end
$var wire 1 z" inst2|Reg1 [5] $end
$var wire 1 {" inst2|Reg1 [4] $end
$var wire 1 |" inst2|Reg1 [3] $end
$var wire 1 }" inst2|Reg1 [2] $end
$var wire 1 ~" inst2|Reg1 [1] $end
$var wire 1 !# inst2|Reg1 [0] $end
$var wire 1 "# inst|Q [7] $end
$var wire 1 ## inst|Q [6] $end
$var wire 1 $# inst|Q [5] $end
$var wire 1 %# inst|Q [4] $end
$var wire 1 &# inst|Q [3] $end
$var wire 1 '# inst|Q [2] $end
$var wire 1 (# inst|Q [1] $end
$var wire 1 )# inst|Q [0] $end
$var wire 1 *# B~combout [7] $end
$var wire 1 +# B~combout [6] $end
$var wire 1 ,# B~combout [5] $end
$var wire 1 -# B~combout [4] $end
$var wire 1 .# B~combout [3] $end
$var wire 1 /# B~combout [2] $end
$var wire 1 0# B~combout [1] $end
$var wire 1 1# B~combout [0] $end
$var wire 1 2# A~combout [7] $end
$var wire 1 3# A~combout [6] $end
$var wire 1 4# A~combout [5] $end
$var wire 1 5# A~combout [4] $end
$var wire 1 6# A~combout [3] $end
$var wire 1 7# A~combout [2] $end
$var wire 1 8# A~combout [1] $end
$var wire 1 9# A~combout [0] $end
$var wire 1 :# inst1|Q [7] $end
$var wire 1 ;# inst1|Q [6] $end
$var wire 1 <# inst1|Q [5] $end
$var wire 1 =# inst1|Q [4] $end
$var wire 1 ># inst1|Q [3] $end
$var wire 1 ?# inst1|Q [2] $end
$var wire 1 @# inst1|Q [1] $end
$var wire 1 A# inst1|Q [0] $end
$upscope $end
$upscope $end
$enddefinitions $end
#0
$dumpvars
b1001111 !
b11110 "
0#
0$
0%
0&
1'
1(
0,
0+
0*
0)
0<
0;
0:
09
08
07
06
05
04
03
02
01
00
0/
0.
0-
0@
0?
0>
0=
0D
0C
0B
0A
1K
0J
0I
0H
0G
0F
0E
1R
0Q
0P
0O
0N
0M
0L
1Y
1X
1W
1V
1U
1T
1S
0`
0_
1^
0]
0\
1[
0Z
xa
0b
1c
xd
1e
1f
1g
0h
0i
0j
0k
0l
0m
0n
0o
0p
0q
0r
0s
0t
0u
0v
0w
0x
0y
0z
0{
0|
0}
0~
0!!
0"!
0#!
0$!
1%!
0&!
1'!
0(!
1)!
0*!
0+!
0,!
0-!
0.!
0/!
00!
01!
02!
03!
04!
05!
06!
07!
18!
19!
1:!
1;!
1<!
1=!
1>!
0?!
1@!
0A!
1B!
1C!
0D!
0E!
0F!
1G!
0H!
1I!
0J!
1K!
0L!
1M!
0N!
1O!
0P!
1Q!
0R!
0S!
0T!
0U!
1V!
0W!
1X!
0Y!
0Z!
0[!
0\!
0]!
1^!
0_!
0`!
0a!
0b!
0c!
0d!
0e!
1f!
0g!
0h!
0i!
0j!
0k!
1l!
0m!
1n!
1o!
0p!
0q!
0r!
0s!
1t!
0u!
1v!
0w!
1x!
0y!
0z!
0{!
0|!
0}!
0~!
1!"
0""
1#"
0$"
0%"
0&"
0'"
1("
0)"
1*"
0+"
0,"
0-"
1."
0/"
10"
01"
12"
03"
04"
05"
06"
07"
18"
09"
0:"
0;"
0<"
1="
0>"
0?"
0@"
0A"
0B"
1C"
0D"
0E"
0F"
0G"
0H"
0I"
0J"
0K"
0L"
1M"
0N"
0O"
0P"
0Q"
0R"
0S"
0T"
0U"
0V"
0W"
0X"
0Y"
0Z"
0["
0\"
0]"
0^"
0_"
1`"
1a"
1b"
1c"
zg"
0f"
1e"
0d"
0o"
0n"
0m"
0l"
0k"
0j"
0i"
0h"
0w"
0v"
0u"
0t"
0s"
0r"
0q"
0p"
0!#
0~"
0}"
0|"
0{"
0z"
0y"
0x"
0)#
0(#
0'#
0&#
0%#
0$#
0##
0"#
01#
10#
1/#
1.#
1-#
0,#
0+#
0*#
19#
18#
17#
16#
05#
04#
13#
02#
0A#
0@#
0?#
0>#
0=#
0<#
0;#
0:#
$end
#50000
1#
1u
1v
0a
1##
1=#
1?#
1@#
1>#
1)#
1(#
1'#
1&#
#100000
0#
0u
0v
1a
#130000
1$
1%
1z
1,!
0a
1.!
16!
1<
#150000
1#
1u
1v
1a
1y"
1s"
1u"
1v"
1t"
1!#
1~"
1}"
1|"
1(!
1&!
0x!
1:"
1q
1k
1-"
0!"
1L"
1c!
1q!
1'"
0M!
1`!
1m
1i!
1d!
0Q!
1L!
1e!
1~!
1N!
1H!
1D!
0("
1T!
0>!
1o
1?!
1h!
0@!
1h
1u!
1A!
1^"
17!
0.!
1-!
1w
0a"
0`"
0e"
0'!
1)
1y!
1;"
11"
0="
1/"
0M"
1""
1D"
1i
0N!
1n
1g!
1R!
0`!
0L"
1Y!
1k!
1)"
0-"
1U!
0n!
0h!
1p!
0h
0A!
0v!
1J"
0c"
1a"
17"
06!
14
0[
0^
1]
1>"
02"
00"
0C"
0#"
1<"
0."
0X!
1b!
1a!
1Z!
1j
0/"
1M"
0V!
0f!
0o!
1w!
1@"
0<
1`
0]
1="
1$"
1/"
0M"
1[!
1W!
0a!
0:"
1C"
1\!
1X!
#200000
0#
0u
0v
0a
#250000
1#
1u
1v
1a
1h"
1o"
1n"
1m"
0(!
1{
1]"
1U"
1T"
1S"
0^"
1?"
0k!
1j!
07!
1.!
0-!
0w
1+!
1*!
0)!
1|
1A
1@
1?
1>
0)
0Y
0b"
0a"
1_"
1k!
07"
1]!
1/!
1B"
19"
1%"
0i!
1F!
1E!
1r
1l
1E"
1m!
0Y!
0D!
0p!
0q
0m
1J
1I
1H
04
1,
1+
0R
1^
1*
1K"
0;"
0n
13"
0j!
1H"
16"
0G!
0[!
1s
1m
1F"
1p!
0Z!
0q!
1Z
15
1_
1]
1N"
0>"
0b!
14"
0k!
1I"
17"
0\!
1q!
1O"
0?"
0c!
0]!
#300000
0#
0u
0v
0a
#350000
1#
1u
1v
1a
1k"
1j"
0n"
0m"
1}
0{
1X"
1W"
1P"
1^"
0+!
0|
1D
1C
0?
0>
1b"
1a"
0_"
0B"
08"
0%"
0l!
0d!
0H!
0F!
10!
0/!
0r
1p
0l
1M
1L
1E
0,
0^
0K"
03"
0m!
0g!
1Y!
0H"
06"
1G!
0s
1q
0m
0Z
16
05
0_
0]
0N"
04"
0p!
1Z!
0I"
07"
0O"
0q!
#400000
0#
0u
0v
0a
#450000
1#
1u
1v
1a
0k"
0j"
0h"
0o"
1~
0}
0]"
0X"
0W"
0U"
0T"
0S"
0P"
1d"
1+!
0*!
0D
0C
0A
0@
1Y
1c"
1B"
09"
18"
1%"
1l!
1i!
1F!
0E!
11!
00!
1r
0p
1l
0E"
0Y!
1D!
0M
0L
0J
0I
0H
0E
1,
0+
1R
1E"
1;"
13"
1m!
1j!
1H"
16"
0G!
1G"
1[!
1s
0q
1m
0F"
0Z!
17
06
0`
1F"
1>"
14"
1p!
1k!
1I"
17"
15"
1\!
1K"
0;"
1n
1?"
1q!
06"
1]!
1N"
0>"
1b!
07"
1O"
0?"
1c!
#500000
0#
0u
0v
0a
#550000
1#
1u
1v
1a
1k"
1j"
1o"
1n"
1m"
1l"
1!!
0~
1]"
1\"
1["
1V"
1S"
1R"
1Q"
1`"
1f"
1e"
0^"
0d"
0+!
1D
1C
1@
1?
1>
1=
0c"
0b"
0a"
0`"
0B"
0%"
1d!
1H!
0F!
1E!
12!
01!
0r
1p
0l
1Q
1P
1H
1G
1F
1[
0,
0R
0K
1^
0E"
03"
1g!
1Y!
16"
1G!
0G"
05"
0[!
0s
1q
0m
0[
18
07
1`
1_
1]
0F"
04"
1Z!
17"
1[!
0H"
06"
0\!
0K"
1;"
0n
1\!
0I"
07"
0]!
0N"
1>"
0b!
1]!
0O"
1?"
0c!
#600000
0#
0u
0v
0a
#650000
1#
1u
1v
1a
0k"
0j"
1i"
0m"
1"!
0!!
0\"
1Z"
1W"
0S"
0R"
1P"
1d"
1+!
1*!
0f"
0e"
1)!
0D
0C
1B
0>
1c"
1b"
1B"
19"
08"
1%"
0i!
0E!
13!
02!
1r
1l
1E"
1_!
0Y!
0D!
0p!
1m
0Q
1O
1L
0H
0G
1E
1,
1+
0*
0;"
13"
1s
0m
1F"
0Z!
0q!
19
08
0`
0_
14"
1G"
0[!
15"
1H"
0\!
16"
1I"
0]!
17"
#700000
0#
0u
0v
0a
#750000
1#
1u
1v
1a
1j"
1h"
0o"
0l"
1#!
0"!
0["
0Z"
1Y"
1X"
0W"
1U"
1R"
0Q"
0P"
1a"
1f"
0d"
0+!
1C
1A
0@
0=
0Y
0b"
0B"
09"
0%"
0l!
0d!
0H!
14!
03!
0r
0p
0l
0P
0O
1N
1M
0L
1J
1G
0F
0E
0,
0]
1K"
1;"
1n
03"
0g!
1Y!
0s
1m
1:
09
1_
04"
0j!
1Z!
05"
0k!
1[!
06"
1\!
07"
1]!
#800000
0#
0u
0v
0a
#850000
1#
1u
1v
1a
0h"
0n"
1l"
1$!
0#!
0Y"
0U"
0R"
1^"
1+!
0%!
0a"
0f"
0*!
0A
0?
1=
1Y
0c"
1b"
1a"
1B"
18"
1%"
1l!
1i!
15!
04!
1r
1p
1l
0E"
0m!
0_!
0Y!
1D!
0N
0J
0G
1,
0+
0^
1]
1E"
0K"
13"
1s
0m
0F"
1p!
1N"
1b!
0Z!
1;
0:
1`
0_
0]
1F"
0N"
14"
1K"
0n
0G"
1q!
1O"
1c!
0[!
1G"
0O"
15"
1N"
0b!
0H"
0\!
1H"
16"
1O"
0c!
0I"
0]!
1I"
17"
#900000
0#
0u
0v
0a
#950000
1#
1u
1v
1a
1k"
1h"
1o"
0l"
0&!
0$!
1Z"
1Y"
0V"
1U"
1T"
1S"
1P"
1e"
1'!
0^"
0+!
1%!
1D
1A
1@
0=
0Y
1c"
1`"
0B"
0%"
1d!
1H!
16!
05!
0r
0p
0l
1O
1N
1J
1I
1H
1E
0,
1K
1^
0E"
03"
1g!
1Y!
0s
1m
1[
1<
0;
0`
0F"
04"
1j!
1Z!
0K"
1n
0G"
05"
1k!
1[!
0N"
1b!
0H"
06"
1\!
0O"
1c!
0I"
07"
1]!
